<?xml version="1.0" encoding="utf-8"?>
<!-- Generator: Adobe Illustrator 19.0.1, SVG Export Plug-In . SVG Version: 6.00 Build 0)  -->
<!DOCTYPE svg PUBLIC "-//W3C//DTD SVG 1.1//EN" "http://www.w3.org/Graphics/SVG/1.1/DTD/svg11.dtd">
<svg version="1.1" id="Layer_1" xmlns="http://www.w3.org/2000/svg" xmlns:xlink="http://www.w3.org/1999/xlink" x="0px" y="0px"
	 viewBox="0 0 653.8 128.6" style="enable-background:new 0 0 653.8 128.6;" xml:space="preserve">
<style type="text/css">
	.st0{fill:#FFFFFF;}
</style>
<g>
	<polygon class="st0" points="334.3,9.5 334.3,17.8 330.7,17.8 330.7,30.9 343.1,17.8 340.3,17.8 340.3,9.5 359.6,9.5 359.6,17.8 
		355.9,17.8 344.5,29.1 357.1,46.8 360.3,46.8 360.3,55.2 340.4,55.2 340.4,46.8 343.6,46.8 336.4,36.6 330.7,42.1 330.7,46.8 
		334.3,46.8 334.3,55.2 316.4,55.2 316.4,46.8 320,46.8 320,17.8 316.4,17.8 316.4,9.5 	"/>
	<path class="st0" d="M384.1,46.8h3V34.6c0-3.6-1.5-5.4-4.7-5.4c-2.2,0-4.4,1.1-5.9,1.9v15.6h3v8.3h-16.7v-8.3h3.6V29.9h-3.6v-8.3
		h13.7v4.2h0.1c2.8-3.1,6.2-4.9,10.5-4.9c6.7,0,10.1,4.6,10.1,11.3v14.6h3.6v8.3h-16.6V46.8z"/>
	<path class="st0" d="M403.2,38.4c0-10.7,4.6-17.4,16.7-17.4c12.1,0,16.7,6.8,16.7,17.4c0,10.7-4.6,17.4-16.7,17.4
		C407.8,55.8,403.2,49,403.2,38.4 M413.9,38.4c0,5.8,1.3,9.1,6,9.1c4.7,0,6-3.4,6-9.1s-1.3-9.1-6-9.1
		C415.2,29.3,413.9,32.6,413.9,38.4"/>
	<polygon class="st0" points="476.3,21.6 491.7,21.6 491.7,29.9 489.1,29.9 481.6,55.5 470.8,55.5 465.4,38.7 465.3,38.7 
		460.7,55.5 449.9,55.5 441.5,29.9 439.1,29.9 439.1,21.6 456.1,21.6 456.1,29.9 452.3,29.9 456.3,44.3 456.4,44.3 462,21.6 
		470.4,21.6 476.4,44.9 476.5,44.9 479.4,29.9 476.3,29.9 	"/>
	<polygon class="st0" points="492.4,8.2 506.1,8.2 506.1,46.8 509.7,46.8 509.7,55.2 492.4,55.2 492.4,46.8 496,46.8 496,16.5 
		492.4,16.5 	"/>
	<path class="st0" d="M522.7,40.7c0.3,4.2,3.3,6.8,8.6,6.8c2.7,0,5.9,0,10.4-1.3l1.2,8.1c-4.6,1.3-8.7,1.6-13.1,1.6
		c-13.2,0-17.8-6.8-17.8-17.4c0-10.7,4.6-17.4,17.7-17.4c14.6,0,15.6,9.5,14.2,19.7H522.7z M522.7,34.4H534c0.5-3.2-0.3-5.8-4.9-5.8
		C525.2,28.6,523,30.7,522.7,34.4"/>
	<path class="st0" d="M565.4,8.2h13.7v38.7h3.6v8.3H569v-3.4h-0.1c-2,2.3-5.6,4-9.1,4c-9.4,0-12.1-8-12.1-17.4
		c0-9.5,3.4-17.4,12.8-17.4c3.2,0,6.4,1.4,8.5,3.8h0.1v-8.2h-3.6V8.2z M564,47.5c2.4,0,4.1-1,5-1.7V30.9c-0.9-0.7-2.6-1.7-5-1.7
		c-4.4,0-5.6,4-5.6,9.1C558.3,43.6,559.5,47.5,564,47.5"/>
	<path class="st0" d="M589.4,53.9c-4.3-2.9-3.6-8.8,2.7-12v-0.1c-3.4-1.7-5.4-5.3-5.4-9.4c0-7.8,5.8-11.4,14.5-11.4
		c1.7,0,3.6,0.3,5,0.7H619v6h-4.8v0.1c0.9,1.1,1.3,2.6,1.3,4.6c0,7.9-6,11.3-14.2,11.3c-1.1,0-2.6-0.2-4-0.6
		c-1.4,2.1-1.3,3.8,0.8,3.9l10.7,0.5c6.8,0.3,10.8,3.6,10.8,9.3c0,8.7-6.5,12.5-20.4,12.5c-10.3,0-14.8-2.8-14.8-8.7
		c0-2.9,1.5-4.8,5-6.5V53.9z M600.8,62.4c4,0,8.3-0.9,8.3-3.7c0-1.4-1.1-2.5-3.4-2.7l-11.1-0.7c-0.8,1-1.5,1.6-1.5,3.4
		C593.1,62.1,597.1,62.4,600.8,62.4 M605.9,32.3c0-3.4-2-4.6-4.6-4.6c-2.8,0-4.7,1.1-4.7,4.6c0,3.4,2,4.5,4.7,4.5
		C603.9,36.8,605.9,35.7,605.9,32.3"/>
	<path class="st0" d="M632,40.7c0.3,4.2,3.3,6.8,8.6,6.8c2.7,0,5.9,0,10.4-1.3l1.2,8.1c-4.6,1.3-8.7,1.6-13.1,1.6
		c-13.2,0-17.8-6.8-17.8-17.4c0-10.7,4.6-17.4,17.7-17.4c14.6,0,15.6,9.5,14.2,19.7H632z M632,34.4h11.3c0.5-3.2-0.3-5.8-4.9-5.8
		C634.5,28.6,632.4,30.7,632,34.4"/>
	<polygon class="st0" points="360,72.1 360,77.1 355.6,77.1 355.6,117.7 349,117.7 326.7,83.7 326.5,83.7 326.5,112.7 331.1,112.7 
		331.1,117.7 316.3,117.7 316.3,112.7 320.7,112.7 320.7,77.1 316.3,77.1 316.3,72.1 326.9,72.1 349.5,107 349.7,107 349.7,77.1 
		345.2,77.1 345.2,72.1 	"/>
	<path class="st0" d="M369.9,102c0.1,6.7,3.3,11.4,11.2,11.4c3.3,0,6.6-0.1,10.5-1.3l0.8,4.9c-4.2,1.1-7.7,1.5-12.1,1.5
		c-12.4,0-16.8-7-16.8-17.4c0-10.4,4.4-17.4,16.4-17.4c14.1,0,14.4,10.7,13,18.5H369.9z M369.9,98.1H387c0.9-4.7-0.3-9.9-7.4-9.9
		C372.9,88.2,370.3,92.5,369.9,98.1"/>
	<path class="st0" d="M402.7,88.5h-5v-4l5-0.4l0.7-9.4h5.3v9.4h9.4v4.4h-9.4V107c0,4.3,1.3,6.6,5.7,6.6c0.9,0,2-0.1,3.4-0.3l0.6,4.7
		c-1.8,0.3-4.4,0.5-6,0.5c-6.9,0-9.7-2.8-9.7-10.4V88.5z"/>
	<polygon class="st0" points="461.2,84.2 474.9,84.2 474.9,89.2 472,89.2 463.1,118.1 456.6,118.1 449.2,94.4 449,94.4 442.1,118.1 
		435.7,118.1 426.2,89.2 423.3,89.2 423.3,84.2 437.9,84.2 437.9,89.2 432.6,89.2 439.4,111.2 439.6,111.2 447.1,84.2 452.1,84.2 
		460,111.6 460.1,111.6 466.1,89.2 461.2,89.2 	"/>
	<path class="st0" d="M479,101c0-10.4,4.2-17.4,15.4-17.4c11.2,0,15.4,7,15.4,17.4c0,10.4-4.2,17.4-15.4,17.4
		C483.1,118.4,479,111.3,479,101 M485.3,101c0,7,2,12.4,9.1,12.4c7,0,9.1-5.4,9.1-12.4c0-7-2.1-12.4-9.1-12.4
		C487.3,88.5,485.3,93.9,485.3,101"/>
	<path class="st0" d="M513.9,84.2h10.4v5.4h0.1c2.7-3,7.2-6,12.6-6v5.7c-5,0-10.1,2.1-12.8,3.9v19.6h5v5h-15.4v-5h4.4V89.2h-4.4
		V84.2z"/>
	<polygon class="st0" points="539.6,70.8 550,70.8 550,100.5 564.8,89.2 561.1,89.2 561.1,84.2 576.5,84.2 576.5,89.2 571.7,89.2 
		562.4,96.3 573.1,112.7 577.2,112.7 577.2,117.7 561.7,117.7 561.7,112.7 565.6,112.7 557.3,99.5 550,105.1 550,112.7 554.4,112.7 
		554.4,117.7 539.6,117.7 539.6,112.7 544,112.7 544,75.8 539.6,75.8 	"/>
	<path class="st0" d="M111.6,39.7c3.6,1,5.8,3.6,5.8,7.6c0,5.2-3.3,8.4-9.6,8.4H94v-31h12.8c6.3,0,9.6,3,9.6,7.9
		C116.5,36,114.6,38.6,111.6,39.7L111.6,39.7z M106.2,29.4h-6.9v8h6.9c3.1,0,4.7-1.2,4.7-4C110.9,30.8,109.3,29.4,106.2,29.4z
		 M99.3,42.2V51h7.6c3,0,4.9-1.1,4.9-4.4c0-3.1-1.9-4.4-5.3-4.4H99.3z"/>
	<path class="st0" d="M141.1,55.7l-6.9-11.6h-5.6v11.6h-5.3v-31h13c6.3,0,9.9,4,9.9,9.7c0,4.3-2.1,7.9-6.5,8.9l7.6,12.4H141.1z
		 M128.6,39.4h6.9c3.1,0,5.3-1.5,5.3-5c0-3.3-2.1-5-5.1-5h-7.1V39.4z"/>
	<path class="st0" d="M152.8,55.7v-31h5.3v31H152.8z"/>
	<path class="st0" d="M177.7,29.4v26.3h-5.3V29.4h-8.4v-4.7h22v4.7H177.7z"/>
	<path class="st0" d="M191.8,55.7v-31h5.3v31H191.8z"/>
	<path class="st0" d="M203.4,54.5l0.9-4.5c4.8,1.1,8.1,1.4,10.5,1.4c3.9,0,5.9-1.9,5.9-4.2c0-3.3-4-4.1-7.5-5
		c-5.2-1.4-9.4-4.3-9.4-9.5c0-6.1,4.9-8.4,11-8.4c3.5,0,6.7,0.5,10.7,1.6l-1.2,4.5c-4.8-1.1-7.1-1.4-9.5-1.4c-3.9,0-5.4,1.7-5.4,3.8
		c0,3.1,3.9,4.1,7.5,4.9c5.2,1.2,9.4,3.7,9.4,9.1c0,6.4-5,9.4-11.5,9.4C211.4,56.2,207.4,55.7,203.4,54.5z"/>
	<path class="st0" d="M232.7,55.7v-31h5.3v12.6h13.2V24.7h5.3v31h-5.3V42H238v13.7H232.7z"/>
	<path class="st0" d="M13.5,71.8c3.6,0,6.9,0.5,11,1.6l-1.2,4.5c-4.8-1.1-6.9-1.4-9.4-1.4c-6.5,0-8.4,4.6-8.4,11
		c0,6.8,1.9,11.5,8.4,11.5c2.5,0,4.6-0.2,9.4-1.4l1.2,4.5c-4.1,1.2-7.4,1.6-11,1.6C2.7,103.7,0,96.4,0,87.5
		C0,78.8,2.7,71.8,13.5,71.8z"/>
	<path class="st0" d="M27.7,87.5c0-8.7,2.7-15.8,13.5-15.8s13.5,7,13.5,15.8c0,8.8-2.7,16.2-13.5,16.2S27.7,96.3,27.7,87.5z
		 M33.3,87.5c0,6.4,1.2,11.8,7.9,11.8s7.9-5.4,7.9-11.8S48,76.2,41.2,76.2S33.3,81.1,33.3,87.5z"/>
	<path class="st0" d="M65.1,72.2v26.3h14.9v4.7H59.8v-31H65.1z"/>
	<path class="st0" d="M102.3,92.3V72.2h5.3v20.1c0,8-4.5,11.4-11.9,11.4c-7.4,0-11.9-3.4-11.9-11.4V72.2h5.3v20.1c0,3.4,0.9,7,6.7,7
		C101.4,99.3,102.3,95.7,102.3,92.3z"/>
	<path class="st0" d="M130.4,94.5L130.4,94.5l8.4-22.2h7v31h-5.3V81.9h-0.1l-8.4,21.4h-3.9L120,81.9h-0.1v21.4h-5.2v-31h7
		L130.4,94.5z"/>
	<path class="st0" d="M172.3,87.3c3.6,1,5.8,3.6,5.8,7.6c0,5.2-3.3,8.4-9.6,8.4h-13.7v-31h12.8c6.3,0,9.6,3,9.6,7.9
		C177.2,83.5,175.4,86.2,172.3,87.3L172.3,87.3z M167,77H160v8h6.9c3.1,0,4.7-1.2,4.7-4C171.6,78.3,170,77,167,77z M160,89.8v8.8
		h7.6c3,0,4.9-1.1,4.9-4.4c0-3.1-1.9-4.4-5.3-4.4H160z"/>
	<path class="st0" d="M184.5,103.3v-31h5.3v31H184.5z"/>
	<path class="st0" d="M214.1,95.8h-10.8l-2.4,7.4h-5.6L205.6,72h6.5l10.2,31.3h-5.9L214.1,95.8z M208.7,78.6l-4.3,12.7h8.6
		L208.7,78.6L208.7,78.6z"/>
	<path class="st0" d="M224.9,84.5l1-5.9c-0.6,0-1.3,0-2,0v-6.3h5v6.3l-2.5,5.9H224.9z"/>
	<path class="st0" d="M234.1,102.1l0.9-4.5c4.8,1.1,8.1,1.4,10.5,1.4c3.9,0,5.9-1.9,5.9-4.2c0-3.3-4-4.1-7.5-5
		c-5.2-1.4-9.4-4.3-9.4-9.5c0-6.1,4.9-8.4,11-8.4c3.5,0,6.7,0.5,10.7,1.6l-1.2,4.5c-4.8-1.1-7.1-1.4-9.5-1.4c-3.9,0-5.4,1.7-5.4,3.8
		c0,3.1,3.9,4.1,7.5,4.9c5.2,1.2,9.4,3.7,9.4,9.1c0,6.4-5,9.4-11.5,9.4C242.1,103.7,238.2,103.3,234.1,102.1z"/>
	<path class="st0" d="M593.3,94.9h-9.6v-6.6h9.6V94.9z M593.3,113.6h-9.6V107h9.6V113.6z"/>
	<rect x="286.9" class="st0" width="2.7" height="128.6"/>
</g>
</svg>
